<?xml version="1.0" encoding="UTF-8"?>
<svg xmlns="http://www.w3.org/2000/svg" xmlns:xlink="http://www.w3.org/1999/xlink" width="64px" height="64px" viewBox="0 0 64 64" version="1.1">
<g id="surface1">
<path style="fill:none;stroke-width:8;stroke-linecap:butt;stroke-linejoin:miter;stroke:rgb(0%,0%,0%);stroke-opacity:1;stroke-miterlimit:4;" d="M 9.113264 65.023455 C 11.681266 45.576243 28.302094 30.980287 48.002416 30.980287 C 67.697464 30.980287 84.318292 45.576243 86.886295 65.023455 Z M 9.113264 65.023455 " transform="matrix(0.740787,0,0,0.740787,-3.622085,-19.984963)"/>
<path style="fill:none;stroke-width:8;stroke-linecap:butt;stroke-linejoin:miter;stroke:rgb(0%,0%,0%);stroke-opacity:1;stroke-miterlimit:4;" d="M 9.111089 65.022412 C 11.684365 45.575199 28.29992 30.979244 48.000241 30.979244 C 67.69529 30.979244 84.316118 45.575199 86.889393 65.022412 Z M 9.111089 65.022412 " transform="matrix(-0.740787,0,0,-0.740787,67.745474,83.886534)"/>
</g>
</svg>
